%YAML 1.1
%TAG !u! tag:unity3d.com,2011:
--- !u!74 &7400000
AnimationClip:
  m_ObjectHideFlags: 0
  m_CorrespondingSourceObject: {fileID: 0}
  m_PrefabInstance: {fileID: 0}
  m_PrefabAsset: {fileID: 0}
  m_Name: Run
  serializedVersion: 7
  m_Legacy: 0
  m_Compressed: 0
  m_UseHighQualityCurve: 1
  m_RotationCurves: []
  m_CompressedRotationCurves: []
  m_EulerCurves: []
  m_PositionCurves: []
  m_ScaleCurves: []
  m_FloatCurves: []
  m_PPtrCurves:
  - serializedVersion: 2
    curve:
    - time: 0
      value: {fileID: -412900142540897209, guid: 4140856ed92279d47a11bd835bbbe06f, type: 3}
    - time: 0.083333336
      value: {fileID: 5030243020872747181, guid: b0b3ec0234efe8e418cff166a7a656be, type: 3}
    - time: 0.16666667
      value: {fileID: -1653017066718157709, guid: 35477063b9be241459d42ef6114875c9, type: 3}
    - time: 0.25
      value: {fileID: 825022793356807029, guid: d555de4cf969589428917c4ea1c95939, type: 3}
    - time: 0.33333334
      value: {fileID: 4860469920879234302, guid: c984c2bc4e0bd4c48a9243da11374428, type: 3}
    - time: 0.41666666
      value: {fileID: 4592173209045008958, guid: 173a43c3eb59a3a47ab857b79b077ac3, type: 3}
    - time: 0.5
      value: {fileID: -5018323272453594318, guid: 364ba9fdb469bd84dbf1a054c1c7830b, type: 3}
    - time: 0.5833333
      value: {fileID: -1696120170422367365, guid: 91941e00c1d42db43a0c4dab168e92a6, type: 3}
    attribute: m_Sprite
    path: 
    classID: 212
    script: {fileID: 0}
    flags: 0
  m_SampleRate: 12
  m_WrapMode: 0
  m_Bounds:
    m_Center: {x: 0, y: 0, z: 0}
    m_Extent: {x: 0, y: 0, z: 0}
  m_ClipBindingConstant:
    genericBindings:
    - serializedVersion: 2
      path: 0
      attribute: 0
      script: {fileID: 0}
      typeID: 212
      customType: 23
      isPPtrCurve: 1
      isIntCurve: 0
      isSerializeReferenceCurve: 0
    pptrCurveMapping:
    - {fileID: -412900142540897209, guid: 4140856ed92279d47a11bd835bbbe06f, type: 3}
    - {fileID: 5030243020872747181, guid: b0b3ec0234efe8e418cff166a7a656be, type: 3}
    - {fileID: -1653017066718157709, guid: 35477063b9be241459d42ef6114875c9, type: 3}
    - {fileID: 825022793356807029, guid: d555de4cf969589428917c4ea1c95939, type: 3}
    - {fileID: 4860469920879234302, guid: c984c2bc4e0bd4c48a9243da11374428, type: 3}
    - {fileID: 4592173209045008958, guid: 173a43c3eb59a3a47ab857b79b077ac3, type: 3}
    - {fileID: -5018323272453594318, guid: 364ba9fdb469bd84dbf1a054c1c7830b, type: 3}
    - {fileID: -1696120170422367365, guid: 91941e00c1d42db43a0c4dab168e92a6, type: 3}
  m_AnimationClipSettings:
    serializedVersion: 2
    m_AdditiveReferencePoseClip: {fileID: 0}
    m_AdditiveReferencePoseTime: 0
    m_StartTime: 0
    m_StopTime: 0.6666666
    m_OrientationOffsetY: 0
    m_Level: 0
    m_CycleOffset: 0
    m_HasAdditiveReferencePose: 0
    m_LoopTime: 1
    m_LoopBlend: 0
    m_LoopBlendOrientation: 0
    m_LoopBlendPositionY: 0
    m_LoopBlendPositionXZ: 0
    m_KeepOriginalOrientation: 0
    m_KeepOriginalPositionY: 1
    m_KeepOriginalPositionXZ: 0
    m_HeightFromFeet: 0
    m_Mirror: 0
  m_EditorCurves: []
  m_EulerEditorCurves: []
  m_HasGenericRootTransform: 0
  m_HasMotionFloatCurves: 0
  m_Events: []
