Library\Bee\artifacts\mvdfrm\Unity.2D.PixelPerfect.ref.dll_88C9F7A57CCB704B.mvfrm
Library\Bee\artifacts\mvdfrm\UnityEditor.TestRunner.ref.dll_193EC4CE382CBFB3.mvfrm
Library\Bee\artifacts\mvdfrm\UnityEditor.UI.ref.dll_4C98D3F7040CD4F5.mvfrm
Library\Bee\artifacts\mvdfrm\UnityEngine.TestRunner.ref.dll_E55D0F7C63F01D9E.mvfrm
Library\Bee\artifacts\mvdfrm\UnityEngine.UI.ref.dll_08FEAA520A2EFD60.mvfrm
Library\Bee\artifacts\mvdfrm\UnityEditor.Graphs.dll_E1DA9A2FBBCFFCBB.mvfrm
Library\Bee\artifacts\mvdfrm\UnityEditor.CoreModule.dll_6AE4170854E83B89.mvfrm
Library\Bee\artifacts\mvdfrm\UnityEditor.DeviceSimulatorModule.dll_67C50FA8418E4788.mvfrm
Library\Bee\artifacts\mvdfrm\UnityEditor.DiagnosticsModule.dll_90C14066C3F557D6.mvfrm
Library\Bee\artifacts\mvdfrm\UnityEditor.dll_AF81941D246B37BC.mvfrm
Library\Bee\artifacts\mvdfrm\UnityEditor.EditorToolbarModule.dll_690AC08EA570D458.mvfrm
Library\Bee\artifacts\mvdfrm\UnityEditor.GraphViewModule.dll_ADB3D9BECDF6DCED.mvfrm
Library\Bee\artifacts\mvdfrm\UnityEditor.PresetsUIModule.dll_691A12A0D04F34F2.mvfrm
Library\Bee\artifacts\mvdfrm\UnityEditor.PropertiesModule.dll_417DECCC8475D2DD.mvfrm
Library\Bee\artifacts\mvdfrm\UnityEditor.QuickSearchModule.dll_1BD0C1741CCC542F.mvfrm
Library\Bee\artifacts\mvdfrm\UnityEditor.SceneTemplateModule.dll_8CAA314CA45D7E90.mvfrm
Library\Bee\artifacts\mvdfrm\UnityEditor.SceneViewModule.dll_EC63BCC6C319A9FB.mvfrm
Library\Bee\artifacts\mvdfrm\UnityEditor.TextCoreFontEngineModule.dll_4812F7D802279EE7.mvfrm
Library\Bee\artifacts\mvdfrm\UnityEditor.TextCoreTextEngineModule.dll_8FFB2E4991AB5805.mvfrm
Library\Bee\artifacts\mvdfrm\UnityEditor.UIBuilderModule.dll_023C86DB40AF5621.mvfrm
Library\Bee\artifacts\mvdfrm\UnityEditor.UIElementsModule.dll_6C5AE7E8046E2825.mvfrm
Library\Bee\artifacts\mvdfrm\UnityEditor.UIElementsSamplesModule.dll_F96FD6988EE22298.mvfrm
Library\Bee\artifacts\mvdfrm\UnityEditor.UnityConnectModule.dll_EC6273559EE9AEBF.mvfrm
Library\Bee\artifacts\mvdfrm\UnityEngine.AccessibilityModule.dll_BF4F9CE3A4D3A62D.mvfrm
Library\Bee\artifacts\mvdfrm\UnityEngine.AIModule.dll_150A3B8266EA72BD.mvfrm
Library\Bee\artifacts\mvdfrm\UnityEngine.AndroidJNIModule.dll_EAA3D0BB4D8D96FB.mvfrm
Library\Bee\artifacts\mvdfrm\UnityEngine.AnimationModule.dll_7C3955E7A853B193.mvfrm
Library\Bee\artifacts\mvdfrm\UnityEngine.ARModule.dll_CE7D0085C407D186.mvfrm
Library\Bee\artifacts\mvdfrm\UnityEngine.AssetBundleModule.dll_5FB9F4657F330921.mvfrm
Library\Bee\artifacts\mvdfrm\UnityEngine.AudioModule.dll_E0A7DAFCB1F5F5C5.mvfrm
Library\Bee\artifacts\mvdfrm\UnityEngine.ClothModule.dll_479037F78C12D4A9.mvfrm
Library\Bee\artifacts\mvdfrm\UnityEngine.ClusterInputModule.dll_6BFEE86B50718185.mvfrm
Library\Bee\artifacts\mvdfrm\UnityEngine.ClusterRendererModule.dll_6D71D219B149550C.mvfrm
Library\Bee\artifacts\mvdfrm\UnityEngine.ContentLoadModule.dll_F8D04DA64DB5B10E.mvfrm
Library\Bee\artifacts\mvdfrm\UnityEngine.CoreModule.dll_8E04EA5AFCEDA6B4.mvfrm
Library\Bee\artifacts\mvdfrm\UnityEngine.CrashReportingModule.dll_6C84B20AC63172CC.mvfrm
Library\Bee\artifacts\mvdfrm\UnityEngine.DirectorModule.dll_118C1937BA3201D1.mvfrm
Library\Bee\artifacts\mvdfrm\UnityEngine.dll_E225DAF582DEC4A1.mvfrm
Library\Bee\artifacts\mvdfrm\UnityEngine.DSPGraphModule.dll_16DD7AA12C92D2F2.mvfrm
Library\Bee\artifacts\mvdfrm\UnityEngine.GameCenterModule.dll_14F11AD613CE87EC.mvfrm
Library\Bee\artifacts\mvdfrm\UnityEngine.GIModule.dll_AD46849002995AD7.mvfrm
Library\Bee\artifacts\mvdfrm\UnityEngine.GridModule.dll_6B76064915423CAB.mvfrm
Library\Bee\artifacts\mvdfrm\UnityEngine.HotReloadModule.dll_FD8213ED8386CD15.mvfrm
Library\Bee\artifacts\mvdfrm\UnityEngine.ImageConversionModule.dll_D963CFCA336E0D00.mvfrm
Library\Bee\artifacts\mvdfrm\UnityEngine.IMGUIModule.dll_19077A63782789A6.mvfrm
Library\Bee\artifacts\mvdfrm\UnityEngine.InputLegacyModule.dll_F0FF0F841724BF12.mvfrm
Library\Bee\artifacts\mvdfrm\UnityEngine.InputModule.dll_471DA2AD282E1A69.mvfrm
Library\Bee\artifacts\mvdfrm\UnityEngine.JSONSerializeModule.dll_1F67261FA40F06B7.mvfrm
Library\Bee\artifacts\mvdfrm\UnityEngine.LocalizationModule.dll_AA4BB2BDE7ED747E.mvfrm
Library\Bee\artifacts\mvdfrm\UnityEngine.MarshallingModule.dll_082292FA635B3673.mvfrm
Library\Bee\artifacts\mvdfrm\UnityEngine.NVIDIAModule.dll_9DBAC70AE33779A0.mvfrm
Library\Bee\artifacts\mvdfrm\UnityEngine.ParticleSystemModule.dll_BF96FB573442FE5A.mvfrm
Library\Bee\artifacts\mvdfrm\UnityEngine.PerformanceReportingModule.dll_1CCA92F342F0EF73.mvfrm
Library\Bee\artifacts\mvdfrm\UnityEngine.Physics2DModule.dll_C8DF45D84950A928.mvfrm
Library\Bee\artifacts\mvdfrm\UnityEngine.PhysicsModule.dll_6D4219BDF2393B36.mvfrm
Library\Bee\artifacts\mvdfrm\UnityEngine.ProfilerModule.dll_43D2526E538B88DE.mvfrm
Library\Bee\artifacts\mvdfrm\UnityEngine.PropertiesModule.dll_422C5A1486B9EC28.mvfrm
Library\Bee\artifacts\mvdfrm\UnityEngine.RuntimeInitializeOnLoadManagerInitializerModule.dll_043D0361F01469F1.mvfrm
Library\Bee\artifacts\mvdfrm\UnityEngine.ScreenCaptureModule.dll_394ED3A4B87B3319.mvfrm
Library\Bee\artifacts\mvdfrm\UnityEngine.SharedInternalsModule.dll_5D750E9FAA9C0850.mvfrm
Library\Bee\artifacts\mvdfrm\UnityEngine.SpriteMaskModule.dll_FE1D8D66353E1D66.mvfrm
Library\Bee\artifacts\mvdfrm\UnityEngine.SpriteShapeModule.dll_791B21C034D5412B.mvfrm
Library\Bee\artifacts\mvdfrm\UnityEngine.StreamingModule.dll_30CE4337F7DB68D1.mvfrm
Library\Bee\artifacts\mvdfrm\UnityEngine.SubstanceModule.dll_0D795781432E66DF.mvfrm
Library\Bee\artifacts\mvdfrm\UnityEngine.SubsystemsModule.dll_68CAF3C803860579.mvfrm
Library\Bee\artifacts\mvdfrm\UnityEngine.TerrainModule.dll_8788952CC7F78424.mvfrm
Library\Bee\artifacts\mvdfrm\UnityEngine.TerrainPhysicsModule.dll_C011A42A4D85F8E7.mvfrm
Library\Bee\artifacts\mvdfrm\UnityEngine.TextCoreFontEngineModule.dll_C672732B15255DB2.mvfrm
Library\Bee\artifacts\mvdfrm\UnityEngine.TextCoreTextEngineModule.dll_0E5AA99CA4A916D0.mvfrm
Library\Bee\artifacts\mvdfrm\UnityEngine.TextRenderingModule.dll_628E45AF6FB2B30E.mvfrm
Library\Bee\artifacts\mvdfrm\UnityEngine.TilemapModule.dll_2684FCADDFB4652D.mvfrm
Library\Bee\artifacts\mvdfrm\UnityEngine.TLSModule.dll_AF395700B578CE8A.mvfrm
Library\Bee\artifacts\mvdfrm\UnityEngine.UIElementsModule.dll_6D09553006B24170.mvfrm
Library\Bee\artifacts\mvdfrm\UnityEngine.UIModule.dll_107DD9AFC3317869.mvfrm
Library\Bee\artifacts\mvdfrm\UnityEngine.UmbraModule.dll_5B7C87153F1CA138.mvfrm
Library\Bee\artifacts\mvdfrm\UnityEngine.UnityAnalyticsCommonModule.dll_B80950375CD98DD1.mvfrm
Library\Bee\artifacts\mvdfrm\UnityEngine.UnityAnalyticsModule.dll_DF366C20E06A5056.mvfrm
Library\Bee\artifacts\mvdfrm\UnityEngine.UnityConnectModule.dll_D9C1F7649971AF6A.mvfrm
Library\Bee\artifacts\mvdfrm\UnityEngine.UnityCurlModule.dll_AF55F7191867A380.mvfrm
Library\Bee\artifacts\mvdfrm\UnityEngine.UnityTestProtocolModule.dll_B5328C8AE8DD77EE.mvfrm
Library\Bee\artifacts\mvdfrm\UnityEngine.UnityWebRequestAssetBundleModule.dll_0C22A05D53D3C3A7.mvfrm
Library\Bee\artifacts\mvdfrm\UnityEngine.UnityWebRequestAudioModule.dll_94C6E6D1C95BBA0B.mvfrm
Library\Bee\artifacts\mvdfrm\UnityEngine.UnityWebRequestModule.dll_EB02D7743E62A77F.mvfrm
Library\Bee\artifacts\mvdfrm\UnityEngine.UnityWebRequestTextureModule.dll_D04633068B91CF40.mvfrm
Library\Bee\artifacts\mvdfrm\UnityEngine.UnityWebRequestWWWModule.dll_D91CEEF89468D33C.mvfrm
Library\Bee\artifacts\mvdfrm\UnityEngine.VehiclesModule.dll_894F12B7345BD16C.mvfrm
Library\Bee\artifacts\mvdfrm\UnityEngine.VFXModule.dll_3017EF6F8BE637F7.mvfrm
Library\Bee\artifacts\mvdfrm\UnityEngine.VideoModule.dll_05B15F677488116A.mvfrm
Library\Bee\artifacts\mvdfrm\UnityEngine.VirtualTexturingModule.dll_B44FCE8400125852.mvfrm
Library\Bee\artifacts\mvdfrm\UnityEngine.VRModule.dll_6350003564EBFDE1.mvfrm
Library\Bee\artifacts\mvdfrm\UnityEngine.WindModule.dll_0453C5838E24251D.mvfrm
Library\Bee\artifacts\mvdfrm\UnityEngine.XRModule.dll_960EC339EE264B3F.mvfrm
Library\Bee\artifacts\mvdfrm\UnityEditor.WindowsStandalone.Extensions.dll_9002F2FB25CCAFA7.mvfrm
Library\Bee\artifacts\mvdfrm\Unity.Burst.Cecil.dll_65F8256ECD44E89B.mvfrm
Library\Bee\artifacts\mvdfrm\Unity.Burst.Cecil.Mdb.dll_204D519F42ADFA98.mvfrm
Library\Bee\artifacts\mvdfrm\Unity.Burst.Cecil.Pdb.dll_379FCA0EC162FC1B.mvfrm
Library\Bee\artifacts\mvdfrm\Unity.Burst.Cecil.Rocks.dll_8C676B46E450DD9B.mvfrm
Library\Bee\artifacts\mvdfrm\Unity.Burst.Unsafe.dll_30C71F39C45B1C88.mvfrm
Library\Bee\artifacts\mvdfrm\Unity.Plastic.Antlr3.Runtime.dll_AE2AA8F8111005C3.mvfrm
Library\Bee\artifacts\mvdfrm\Unity.Plastic.Newtonsoft.Json.dll_8BC2CF515C7A7DC2.mvfrm
Library\Bee\artifacts\mvdfrm\Unity.Collections.LowLevel.ILSupport.dll_2E40CE80E145E521.mvfrm
Library\Bee\artifacts\mvdfrm\Unity.VisualScripting.IonicZip.dll_3BC3E19486E7541D.mvfrm
Library\Bee\artifacts\mvdfrm\Unity.VisualScripting.YamlDotNet.dll_AD6B6FA48234C86F.mvfrm
Library\Bee\artifacts\mvdfrm\Unity.VisualScripting.TextureAssets.dll_448998F843022667.mvfrm
Library\Bee\artifacts\mvdfrm\Unity.VisualScripting.Antlr3.Runtime.dll_5ED89685B2FDD88E.mvfrm